Chapter 5 Results | US Crime Analysis
…
## # A tibble: 50 × 4
##    `Bias motivation`                   Incidents Victims  Year
##    <chr>                                   <dbl>   <dbl> <dbl>
##  1 Anti-White                                575     697  2010
##  2 Anti-Black                               2201    2765  2010
##  3 Anti-American Indian/Alaskan Native        44      47  2010
##  4 Anti-Asian                                150     203  2010
##  5 Anti-Multiple Races, Group                165     237  2010
##  6 Anti-White                                504     593  2011
##  7 Anti-Black                               2076    2619  2011
##  8 Anti-American Indian/Alaskan Native        61      70  2011
##  9 Anti-Asian                                138     175  2011
## 10 Anti-Multiple Races, Group                138     188  2011
## # … with 40 more rows

## # A tibble: 364 × 4
##    `Bias motivation`                   Incidents Victims  Year
##    <chr>                                   <dbl>   <dbl> <dbl>
##  1 Total                                    6628    8208  2010
##  2 Single-Bias Incidents                    6624    8199  2010
##  3 Race                                     3135    3949  2010
##  4 Anti-White                                575     697  2010
##  5 Anti-Black                               2201    2765  2010
##  6 Anti-American Indian/Alaskan Native        44      47  2010
##  7 Anti-Asian                                150     203  2010
##  8 Anti-Multiple Races, Group                165     237  2010
##  9 Religion                                 1322    1552  2010
## 10 Anti-Jewish                               887    1040  2010
## # … with 354 more rows
…
